{
  "table": "auth_session",
  "columns": {
    "id": {
      "type": "int",
      "unsigned": true,
      "primary": true
    },
    "user_id": {
      "type": "int",
      "unsigned": true,
      "depends": {
        "user": {
          "update": "cascade",
          "delete": "cascade"
        }
      }
    },
    "session_id": {
      "type": "text",
      "length": 128
    },
    "session_hash": {
      "type": "text",
      "length": 256
    },
    "ip": {
      "type": "text",
      "length": 40
    },
    "start": {
      "type": "datetime",
      "default": "NOW()"
    }
  }
}