{
  "table": "user_password",
  "columns": {
    "id": {
      "type": "int",
      "unsigned": true,
      "primary": true
    },
    "user_id": {
      "type": "int",
      "unsigned": true,
      "unique": true,
      "depends": {
        "user": {
          "update": "cascade",
          "delete": "cascade"
        }
      }
    },
    "password": {
      "type": "text",
      "length": 128
    }
  }
}